…
``` r
Q_4%>%
  filter(Llamadas>1000)%>%
  mutate(Dia = paste(day(fecha_creacion),month(fecha_creacion,TRUE,FALSE)))%>%
  select(Dia,Llamadas)
```

    ## # A tibble: 24 × 2
    ##    Dia         Llamadas
    ##    <chr>          <int>
    ##  1 13 January      1437
    ##  2 14 January      1467
    ##  3 13 February     1421
    ##  4 14 February     1469
    ##  5 13 March        1461
    ##  6 14 March        1501
    ##  7 13 April        1429
    ##  8 14 April        1382
    ##  9 13 May          1450
    ## 10 14 May          1492
    ## # … with 14 more rows
    ## # ℹ Use `print(n = ...)` to see more rows
…
#### Distribución de la duración de llamadas

``` r
data%>%
  select(fecha_final,hora_final,fecha_creacion,hora_creacion)%>%
  summarise(Duracion = difftime(hora_final,hora_creacion,tz="UTC",units = "mins"))%>%
  group_by(Duracion)%>%
  summarise(Freq = n())
```

    ## # A tibble: 31 × 2
    ##    Duracion  Freq
    ##    <drtn>   <int>
    ##  1 0 mins    9706
    ##  2 1 mins    8741
    ##  3 2 mins    8508
    ##  4 3 mins    8445
    ##  5 4 mins    8513
    ##  6 5 mins    8413
    ##  7 6 mins    8501
    ##  8 7 mins    8420
    ##  9 8 mins    8576
    ## 10 9 mins    8504
    ## # … with 21 more rows
    ## # ℹ Use `print(n = ...)` to see more rows
…
vuelos <- n_col(vuelos,"dep_time","dep_time_2")
vuelos <- n_col(vuelos,"sched_dep_time","sched_dep_time_2")
vuelos <- n_col(vuelos,"arr_time","arr_time_2")
vuelos <- n_col(vuelos,"sched_arr_time","sched_arr_time_2")

vuelos[,20:23]
```

    ## # A tibble: 328,063 × 4
    ##    dep_time_2 sched_dep_time_2 arr_time_2 sched_arr_time_2
    ##    <Period>   <Period>         <Period>   <Period>        
    ##  1 10H 3M 0S  10H 10M 0S       12H 55M 0S 13H 20M 0S      
    ##  2 10H 5M 0S  10H 0M 0S        12H 39M 0S 12H 34M 0S      
    ##  3 10H 7M 0S  10H 10M 0S       11H 47M 0S 11H 40M 0S      
    ##  4 10H 9M 0S  10H 15M 0S       12H 19M 0S 12H 29M 0S      
    ##  5 10H 10M 0S 10H 15M 0S       12H 4M 0S  12H 10M 0S      
    ##  6 10H 10M 0S 10H 15M 0S       12H 25M 0S 12H 14M 0S      
    ##  7 10H 11M 0S 10H 1M 0S        11H 33M 0S 11H 28M 0S      
    ##  8 10H 11M 0S 10H 15M 0S       12H 46M 0S 13H 7M 0S       
    ##  9 10H 21M 0S 10H 23M 0S       12H 54M 0S 12H 52M 0S      
    ## 10 10H 24M 0S 10H 29M 0S       11H 40M 0S 11H 50M 0S      
    ## # … with 328,053 more rows
    ## # ℹ Use `print(n = ...)` to see more rows

#### Atraso total

``` r
vuelos <- vuelos%>%
  mutate(delay_total = minutes(dep_delay+arr_delay))

vuelos[,"delay_total"]
```

    ## # A tibble: 328,063 × 1
    ##    delay_total
    ##    <Period>   
    ##  1 -32M 0S    
    ##  2 10M 0S     
    ##  3 4M 0S      
    ##  4 -16M 0S    
    ##  5 -11M 0S    
    ##  6 6M 0S      
    ##  7 15M 0S     
    ##  8 -25M 0S    
    ##  9 0S         
    ## 10 -15M 0S    
    ## # … with 328,053 more rows
    ## # ℹ Use `print(n = ...)` to see more rows
